"","estimator","DI_alpha","MLF_beta","DMR_gamma","RMSE","lambda"
"1","FairBagging_DP_lambda_0.01","1.13779466501241","0.826483443747423","0.30994005994006","0.484158603450359","0.01"
"2","FairBagging_DP_lambda_0.001","1.10642112125163","0.825452925060533","0.290928643724696","0.47910797254762","0.001"
"3","FairBagging_DP_lambda_0.0001","1.10002870264064","0.814220022456033","0.301466962524655","0.486437009462832","1e-04"
"4","FairBagging_DP_lambda_0.1","1.02322589382449","0.82755390138073","0.30747957794418","0.478646181623402","0.1"
"5","FairBagging_DP_lambda_0.3","0.359016393442623","0.962213999290032","0.399486767252041","0.404529856908576","0.3"
"6","FairBagging_DP_lambda_1","0.396010332950631","0.962891129413758","0.445589393541612","0.39624509143969","1"
"7","FairBagging_DP_lambda_10","0.375230155482815","0.950663758815732","0.439333148865523","0.385495539721941","10"
