"","estimator","DI_alpha","MLF_beta","DMR_gamma","RMSE","lambda"
"1","FairBagging_DP_lambda_1000","0.342385951774467","0.939815690728142","0.395353175351882","0.385489481567072","1000"
"2","FairBagging_DP_lambda_100","0.342385951774467","0.939815690728142","0.395353175351882","0.385489481567072","100"
"3","FairBagging_DP_lambda_10","0.342385951774467","0.939815690728142","0.395353175351882","0.385489481567072","10"
"4","FairBagging_DP_lambda_1","0.351700911767371","0.94971780277268","0.384884095313141","0.389867420458371","1"
"5","FairBagging_DP_lambda_0.1","0.346931757522101","0.941954910568056","0.397739866583269","0.395033043628551","0.1"
"6","FairBagging_DP_lambda_0.01","0.346931757522101","0.941954910568056","0.397739866583269","0.395033043628551","0.01"
"7","FairBagging_DP_lambda_0.001","0.346931757522101","0.941954910568056","0.397739866583269","0.395033043628551","0.001"
