"","estimator","DI_alpha","MLF_beta","DMR_gamma","RMSE","lambda"
"1","FairBagging_DP_lambda_0.001","0.997131722813722","0.99789071193303","1.0294298172707","0.589910016155425","0.001"
"2","FairBagging_DP_lambda_0.01","0.997141116560199","0.997895852809953","1.02942158717391","0.589910016155425","0.01"
"3","FairBagging_DP_lambda_0.1","0.997266593624698","0.997963800493464","1.02931955607665","0.589910016155425","0.1"
"4","FairBagging_DP_lambda_0.3","0.997597803590751","0.998143357820736","1.02905032978465","0.589910016155425","0.3"
"5","FairBagging_DP_lambda_1","0.99795348563796","0.998336980053698","1.02874675718734","0.589910016155425","1"
"6","FairBagging_DP_lambda_10","1.0232406691267","0.98840745783902","1.04890565170172","0.56723827379617","10"
"7","FairBagging_DP_lambda_100","1.24640416981455","0.906536038651105","0.94498632814612","0.580017028272808","100"
"8","FairBagging_DP_lambda_1000","1.51161766361793","0.832933205359216","0.901053409446377","0.579351489294839","1000"
