"","estimator","DI_alpha","MLF_beta","DMR_gamma","precision","RMSE"
"1","logistic","1.72691029312966","0.80684426042826","0.899054604338818","0.668984700973574","0.559016994374947"
"2","kNN","0.693434436286005","0.807122195368378","1.02099550838382","0.299645390070922","0.821208083283027"
"3","SVM","1.81438891214694","0.78150200959094","0.964858298300858","0.661911554921541","0.569952348018978"
"4","Random Forest","1.50701245906576","0.842298179658454","0.943451545721755","0.645255474452555","0.588600558344919"
"5","Neural Network","1.28747839434915","0.894786139671186","0.973278879813302","0.621283255086072","0.616766758643737"
