"","estimator","DI_alpha","MLF_beta","DMR_gamma","RMSE"
"1","linear","1.13833787112667","0.963850657468279","0.93584507674356","0.583333333333333"
"2","kNN","1.17009150647915","0.940870731391281","0.898540467127035","0.623609564462324"
"3","SVM","1.23794243485025","0.905646226559008","0.781702538091609","0.580681804454635"
"4","Random Forest","1.1918735630856","0.925881191641431","0.920933999018051","0.628539361054709"
"5","Neural Network","1.13386126152111","0.969340265689996","0.95419498020912","0.581345820457121"
