"","estimator","DI_alpha","MLF_beta","DMR_gamma","RMSE"
"1","linear","1.26775226038604","0.913720279161178","0.822132906924817","0.570628849560393"
"2","kNN","1.20669682060412","0.923125221064278","0.869444006433505","0.620508552880241"
"3","SVM","1.19697085192591","0.91887927731734","0.795497288763814","0.578685184888879"
"4","Random Forest","1.25217165823934","0.905098261349884","0.884047878947567","0.625462791622095"
"5","Neural Network","1.13640380192815","0.933814081661621","0.823374447888554","0.572653559113564"
