"","estimator","DI_alpha","MLF_beta","DMR_gamma","RMSE","lambda"
"1","FairBagging_DP_lambda_1000","1.53338604679727","0.837247606421987","0.88919222386121","0.579351489294839","1000"
"2","FairBagging_DP_lambda_100","1.53338604679727","0.837247606421987","0.88919222386121","0.579351489294839","100"
"3","FairBagging_DP_lambda_10","1.53338604679727","0.837247606421987","0.88919222386121","0.579351489294839","10"
"4","FairBagging_DP_lambda_1","1.53338604679727","0.837247606421987","0.88919222386121","0.579351489294839","1"
"5","FairBagging_DP_lambda_0.3","1.51065411114167","0.838178360338696","0.934859976662777","0.590563656263036","0.3"
"6","FairBagging_DP_lambda_0.1","1.31764253579836","0.890557904252504","0.965624538955726","0.62237101395578","0.1"
"7","FairBagging_DP_lambda_0.01","1.31764253579836","0.890557904252504","0.965624538955726","0.62237101395578","0.01"
"8","FairBagging_DP_lambda_0.001","1.31764253579836","0.890557904252504","0.965624538955726","0.62237101395578","0.001"
