"","estimator","DI_alpha","MLF_beta","DMR_gamma","precision","RMSE"
"1","linear","1.14732474905662","0.953701321862124","0.991455565174841","0.568733153638814","0.649073413641551"
"2","SVM","1.14917918418502","0.947983705525438","0.923688522555178","0.588579795021962","0.637680015736055"
"3","Random Forest","1.25906159798563","0.903386081612366","0.910034353956572","0.618153364632238","0.619263800266888"
