"","estimator","DI_alpha","MLF_beta","DMR_gamma","RMSE","lambda"
"1","FairBagging_LDM_lambda_0.0001","1.34969779607463","0.873853615400494","0.988972150464384","0.625462791622095","1e-04"
"2","FairBagging_LDM_lambda_0.001","1.34969779607463","0.873853615400494","0.988972150464384","0.625462791622095","0.001"
"3","FairBagging_LDM_lambda_0.01","1.34969779607463","0.873853615400494","0.988972150464384","0.625462791622095","0.01"
"4","FairBagging_LDM_lambda_0.03","1.34969779607463","0.873853615400494","0.988972150464384","0.625462791622095","0.03"
"5","FairBagging_LDM_lambda_0.1","1.5921347251569","0.822948387787575","0.922053675612602","0.578685184888879","0.1"
"6","FairBagging_LDM_lambda_0.3","1.5921347251569","0.822948387787575","0.922053675612602","0.578685184888879","0.3"
"7","FairBagging_LDM_lambda_1","1.5921347251569","0.822948387787575","0.922053675612602","0.578685184888879","1"
"8","FairBagging_LDM_lambda_10","1.5921347251569","0.822948387787575","0.922053675612602","0.578685184888879","10"
"9","FairBagging_LDM_lambda_100","1.5921347251569","0.822948387787575","0.922053675612602","0.578685184888879","100"
"10","FairBagging_LDM_lambda_1000","1.5921347251569","0.822948387787575","0.922053675612602","0.578685184888879","1000"
