"","estimator","DI_alpha","MLF_beta","DMR_gamma","RMSE"
"1","linear","2.34959880204016","0.929889194449337","3.32960709865223","0.152800688619317"
"2","SVM","1.99089998231083","0.936835353896756","2.72244754567719","0.162197741224352"
"3","Random Forest","2.30366228215602","0.938783892949613","3.41426215552871","0.14947867689028"
