"","estimator","DI_alpha","MLF_beta","DMR_gamma","RMSE","lambda"
"1","FairBagging_EO_lambda_0.0001","1.02680965147453","0.965609833971903","0.901637857971719","0.510979451641649","1e-04"
"2","FairBagging_EO_lambda_1000","0.0651137391071396","0.658434592227696","0.704334916268617","0.373072825777131","1000"
"3","FairBagging_EO_lambda_100","0.0651137391071396","0.658434592227696","0.704334916268617","0.373072825777131","100"
"4","FairBagging_EO_lambda_10","0.0651137391071396","0.658434592227696","0.704334916268617","0.373072825777131","10"
"5","FairBagging_EO_lambda_1","0.0771574626677747","0.677351760627623","0.655229111558447","0.389786266219493","1"
"6","FairBagging_EO_lambda_0.3","1.02680965147453","0.965609833971903","0.901637857971719","0.510979451641649","0.3"
"7","FairBagging_EO_lambda_0.1","1.02680965147453","0.965609833971903","0.901637857971719","0.510979451641649","0.1"
"8","FairBagging_EO_lambda_0.5","1.02680965147453","0.965609833971903","0.901637857971719","0.510979451641649","0.5"
