"","estimator","DI_alpha","MLF_beta","DMR_gamma","RMSE","lambda"
"1","FairBagging_DP_lambda_1000","1.26424870466321","0.742385691835666","0.616161616161616","0.517687164221791","1000"
"2","FairBagging_DP_lambda_100","1.26424870466321","0.742385691835666","0.616161616161616","0.517687164221791","100"
"3","FairBagging_DP_lambda_10","1.26424870466321","0.742385691835666","0.616161616161616","0.517687164221791","10"
"4","FairBagging_DP_lambda_1","1.26424870466321","0.742385691835666","0.616161616161616","0.517687164221791","1"
"5","FairBagging_DP_lambda_0.1","1.26424870466321","0.742385691835666","0.616161616161616","0.517687164221791","0.1"
"6","FairBagging_DP_lambda_0.3","1.26424870466321","0.742385691835666","0.616161616161616","0.517687164221791","0.3"
"7","FairBagging_DP_lambda_0.01","1.26424870466321","0.742385691835666","0.616161616161616","0.517687164221791","0.01"
"8","FairBagging_DP_lambda_0.001","1.26424870466321","0.742385691835666","0.616161616161616","0.517687164221791","0.001"
"9","FairBagging_DP_lambda_0.0001","1.26424870466321","0.742385691835666","0.616161616161616","0.517687164221791","1e-04"
"10","FairBagging_DP_lambda_0","1.22","0.7787173538876","0.589371980676328","0.529150262212918","0"
"11","FairBagging_DP_lambda_0.00001","1.26424870466321","0.742385691835666","0.616161616161616","0.517687164221791","1e-05"
"12","FairBagging_DP_lambda_0.000001","1.22","0.7787173538876","0.589371980676328","0.529150262212918","1e-06"
"13","FairBagging_DP_lambda_0.00003","1.26424870466321","0.742385691835666","0.616161616161616","0.517687164221791","3e-05"
"14","FairBagging_DP_lambda_0.000003","1.22","0.7787173538876","0.589371980676328","0.529150262212918","3e-06"
"15","FairBagging_DP_lambda_0.000007","1.26424870466321","0.742385691835666","0.616161616161616","0.517687164221791","7e-06"
"16","FairBagging_DP_lambda_0.000005","1.26424870466321","0.742385691835666","0.616161616161616","0.517687164221791","5e-06"
