"","estimator","DI_alpha","MLF_beta","DMR_gamma","RMSE","lambda"
"1","FairBagging_LDM_lambda_0.001","1.14525805172039","0.958126457215603","0.635375330514688","0.525538272812244","0.001"
"2","FairBagging_LDM_lambda_0.01","1.14542734023106","0.957878208113786","0.63584963832435","0.502375310282017","0.01"
"3","FairBagging_LDM_lambda_0.1","1.14581856805047","0.95730479808382","0.63697853995401","0.502375310282017","0.1"
"4","FairBagging_LDM_lambda_1","1.14818693493898","0.955770806692447","0.630333250914385","0.502375310282017","1"
"5","FairBagging_LDM_lambda_10","1.14723126814677","0.955579124722761","0.63727074674892","0.502375310282017","10"
"6","FairBagging_LDM_lambda_100","1.14668549572769","0.955721695811059","0.639336119221881","0.502375310282017","100"
"7","FairBagging_LDM_lambda_1000","1.14663967902992","0.955793388509945","0.639214266807489","0.502375310282017","1000"
