"","estimator","DI_alpha","MLF_beta","DMR_gamma","precision","RMSE"
"1","logistic","0.930555555555556","0.617550505050505","1.7516339869281","0.6","0.511766315719159"
"2","kNN","0.858974358974359","0.653956228956229","0.842767295597484","0.625","0.511766315719159"
"3","SVM","1.1677559912854","0.754335016835017","0.893333333333333","0.653061224489796","0.497613351528119"
"4","Random Forest","0.995753715498938","0.722138047138047","1.24074074074074","0.608695652173913","0.520988072251728"
"5","Neural Network","1.14529914529915","0.765782828282828","0.875816993464052","0.652173913043478","0.502375310282017"
