"","estimator","DI_alpha","MLF_beta","DMR_gamma","RMSE","lambda"
"1","FairBagging_DP_lambda_0.01","1.10288065843621","0.799957912457912","0.812121212121212","0.520988072251728","0.01"
"2","FairBagging_DP_lambda_0.001","1.10288065843621","0.799957912457912","0.812121212121212","0.520988072251728","0.001"
"3","FairBagging_DP_lambda_0.1","1.11666666666667","0.80736531986532","0.783625730994152","0.53004941368931","0.1"
"4","FairBagging_DP_lambda_0.3","1.11666666666667","0.80736531986532","0.783625730994152","0.53004941368931","0.3"
"5","FairBagging_DP_lambda_1","1.1380042462845","0.798863636363636","0.770114942528736","0.534522483824849","1"
"6","FairBagging_DP_lambda_10","1.21541950113379","0.734722222222222","0.827160493827161","0.516397779494322","10"
"7","FairBagging_DP_lambda_100","1.21541950113379","0.734722222222222","0.827160493827161","0.516397779494322","100"
"8","FairBagging_DP_lambda_1000","1.21541950113379","0.734722222222222","0.827160493827161","0.516397779494322","1000"
