"","estimator","DI_alpha","MLF_beta","DMR_gamma","precision","RMSE"
"1","linear","1.13285024154589","0.690993265993266","1.21818181818182","0.569230769230769","0.525538272812244"
"2","SVM","1.1380042462845","0.762079124579125","0.893333333333333","0.666666666666667","0.497613351528119"
"3","Random Forest","1.14529914529915","0.77706228956229","0.842767295597484","0.630434782608696","0.511766315719159"
