"","estimator","DI_alpha","MLF_beta","DMR_gamma","RMSE"
"1","logistic","1.05853712043651","0.838350529072153","0.906924905018355","0.372318319072451"
"2","kNN","1.03648530720232","0.908568857624642","0.822780473339706","0.368752525985598"
"3","SVM","1.06240419154742","0.83107606057989","0.897296708526998","0.374670357893879"
"4","Random Forest","1.05705126860729","0.847014943133189","0.866492066188487","0.366545435787249"
"5","Neural Network","1.05807326605003","0.847049332769979","0.883131022574781","0.3745307784641"
