"","estimator","DI_alpha","MLF_beta","DMR_gamma","precision","RMSE"
"1","linear","1.1962773465067","0.825208889654817","1.23422417231751","0.727058823529412","0.571547606649408"
"2","SVM","1.15854120858291","0.855439760666355","1.51334445371143","0.781954887218045","0.522812904711937"
"3","Random Forest","0.76265627228217","0.751913312203474","1.55392072009694","0.792569659442725","0.577350269189626"
