"","abs.1.DI.","abs.1.MLF.","abs.1.DMR.","MSE","lambda","abs.1.DI._25","abs.1.MLF._25","abs.1.DMR._25","MSE_25","abs.1.DI._75","abs.1.MLF._75","abs.1.DMR._75","MSE_75"
"1",0.486620815806655,0.22512744936761,0.0995502362950293,0.173525,0.001,0.345311902735289,0.158909427280716,0.0304369649394482,0.153333333333333,0.625081589910748,0.293759699672942,0.153673560528732,0.173333333333333
"2",0.486844266378051,0.225370670348337,0.0995484043790873,0.163575,0.01,0.345316122521775,0.157453555011342,0.0334379826391693,0.153333333333333,0.625137947179232,0.29376327771828,0.153673560529032,0.173333333333333
"3",0.481848592442999,0.223024853588735,0.0994871188923323,0.163291666666667,0.1,0.342101398073653,0.156791010553919,0.0324301191222487,0.153333333333333,0.624865630067748,0.290981443946961,0.153673560529032,0.173333333333333
"4",0.486663673139732,0.225339573039941,0.0993805508454003,0.162675,0.3,0.352012153656044,0.160211079946395,0.035134367043155,0.151666666666667,0.624854666532486,0.290935535545736,0.152506486755712,0.171666666666667
"5",0.527775354501466,0.242879172787494,0.102639118380837,0.161125,1,0.43779367469849,0.203172740206153,0.0417692251475399,0.15,0.629960726446929,0.293783055021597,0.144420723241475,0.17
"6",0.571018864469393,0.261852771966389,0.105943619788185,0.159591666666667,10,0.513058544398686,0.227544370575299,0.0438751246348365,0.15,0.630686980862091,0.29163346496275,0.150453786550377,0.168333333333333
"7",0.567375638014706,0.260059626419739,0.107937947970235,0.159933333333333,100,0.508251731483751,0.228194215059063,0.0444239621843565,0.149583333333333,0.625967372960738,0.288457464510997,0.152722360722977,0.168333333333333
"8",0.570079432829142,0.261086410781485,0.105945384216014,0.159966666666667,1000,0.510327239216148,0.227937400339737,0.043315272168937,0.15,0.626492499404025,0.289040819151879,0.152424582227963,0.168333333333333
