"","estimator","DI_alpha","MLF_beta","DMR_gamma","RMSE"
"1","logistic",NA,"1","0.313259187125211","0.593014895821907"
"2","kNN","0.824608742579601","0.982760789196769","0.471771347918137","0.574456264653803"
"3","SVM","0.47359285891396","0.961500292327705","0.404375441072689","0.565685424949238"
"4","Random Forest","0.267866534213756","0.726433695763464","0.897516222868651","0.454606056566195"
"5","Neural Network","1.20157273918742","0.913515363461397","0.406019243678675","0.58022983951764"
