"","DI_alpha","MLF_beta","DMR_gamma","MSE_discr","MSE_smooth","std_DI_alpha","std_MLF_beta","std_DMR_gamma","std_MSE_discr","std_MSE_smooth"
"1",0.0426435151856384,0.539058017671397,1.15132157329241,0.172108333333333,0.145818802798185,0.00149283481655426,0.00157900311943479,0.0148745886867518,0.00101417077684224,0.000567060424190377
"2",1.8566952530507,0.57148845928959,0.998242126232942,0.839208333333333,0.649289915258813,0.00689143598799098,0.00265033576119434,0.00251852050120492,0.00108976876718908,0.00104631968308864
"3",0.0437307653672014,0.583759530754971,1.01058617077802,0.157291666666667,0.125005972611146,0.00181814123064911,0.00258864226454973,0.0140520694173288,0.00105999783376832,0.000805382576928631
"4",0.0365237003661193,0.58240590325327,1.01927136039806,0.160183333333333,0.125102759569677,0.00169020248732559,0.00249044987009549,0.0137422326137511,0.00105407864881056,0.000531901278485634
"5",0.113526698099963,0.702201727614038,0.872873973959328,0.210025,0.181187432576752,0.00572975859466107,0.0117363360929983,0.0227682699373759,0.00616555150290778,0.00721105571632293
