"","estimator","DI_alpha","MLF_beta","DMR_gamma","RMSE"
"1","logistic","0.264497143846287","0.679394684496178","1.31422018348624","0.432049379893857"
"2","kNN","0.301719424023331","0.746918606874831","0.988473300399906","0.450924975282289"
"3","SVM","0.180030162121403","0.67725618970533","1.04121792314852","0.428174419288838"
"4","Random Forest","0.213420371677252","0.702849303680806","0.823366861943186","0.450924975282289"
"5","Neural Network","0.232091864633331","0.702934467289628","1.11509591326105","0.424264068711929"
