"","abs.1.DI.","abs.1.MLF.","abs.1.DMR.","MSE","abs.1.DI._10","abs.1.MLF._10","abs.1.DMR._10","MSE_10","abs.1.DI._90","abs.1.MLF._90","abs.1.DMR._90","MSE_90"
"1",0.956937551839105,0.46270033752158,0.189892691742598,0.171566666666667,0.926967711072189,0.433762317469126,0.0306244654291232,0.155,0.981884968102073,0.492162308122832,0.401205254079013,0.19
"2",0.847353128630524,0.425367453726394,0.0265051717128691,0.839366666666667,0.714703806716756,0.373311354684754,0.00369848722580215,0.8215,0.991528365923529,0.476733391108676,0.0581794146401837,0.855
"3",0.955313065678595,0.418625553108397,0.138225199649384,0.157216666666667,0.922397347244162,0.372683654478848,0.0240434707001651,0.1415,0.989839102113891,0.465380667178044,0.257068506270321,0.175
"4",0.962264892127996,0.419283758547402,0.142570524067031,0.160933333333333,0.931045926151968,0.374332970483267,0.0242621450517915,0.143333333333333,0.99017498422854,0.463937876329959,0.286695554424269,0.176666666666667
"5",0.891110668708364,0.306592992546787,0.241769317697271,0.203641666666667,0.804311050365903,0,0.0388173890582455,0.148166666666666,1,0.474571644330795,0.657403994191232,0.371833333333334
