"","estimator","DI_alpha","MLF_beta","DMR_gamma","RMSE"
"1","logistic","1.05798857538515","0.651512348302524","2.79271788990826","0.525991127935317"
"2","kNN","0.986390424691658","0.73751083236347","1.99941190308163","0.52757305971148"
"3","SVM","0.984164886263667","0.667807860874354","2.33639143730887","0.518009008930668"
"4","Random Forest","1.18703758508434","0.683086907698868","2.44871794871795","0.558271140814808"
"5","Neural Network","1.22888121053259","0.6357648854466","3.11518858307849","0.540061724867322"
