"","estimator","DI_alpha","MLF_beta","DMR_gamma","RMSE","lambda"
"1","FairBagging_DP_lambda_0.01","0.9824184373811","0.507878237491372","1.57638586196593","2.45167051958831","0.01"
"2","FairBagging_DP_lambda_0.1","1.0102390046883","0.64497173048351","1.73468987085844","2.2348478300433","0.1"
"3","FairBagging_DP_lambda_0.3","1.03633954070402","0.669418265379525","1.68536965719657","2.16099688388498","0.3"
"4","FairBagging_DP_lambda_1","1.0592849635242","0.420388673308065","1.49140064868303","2.20035228304221","1"
"5","FairBagging_DP_lambda_10","1.07379819979376","0.261482768944072","1.34656936068804","2.27027462968109","10"
"6","FairBagging_DP_lambda_100","1.075539009474","0.24268111395282","1.32958017651891","2.28073559314003","100"
"7","FairBagging_DP_lambda_1000","1.07571656904278","0.24076647673818","1.32785725279082","2.2818260354497","1000"
