"","estimator","DI_alpha","MLF_beta","DMR_gamma","RMSE"
"1","linear","1.03816255875223","0.561007545057697","1.37232501465878","2.57980842637013"
"2","SVM","1.01574215020907","0.811938790701113","1.68114370314611","2.37030533708664"
"3","Random Forest","1.01675769309412","0.677936867432434","1.71335518596673","2.19405954885495"
