"","estimator","DI_alpha","MLF_beta","DMR_gamma","RMSE","lambda"
"1","FairBagging_LDM_lambda_0.001","1.07301465127162","0.25847026483548","1.36368400712505","2.38019216816274","0.001"
"2","FairBagging_LDM_lambda_0.01","1.0729695768354","0.258960330860959","1.36397399667082","2.37968394009037","0.01"
"3","FairBagging_LDM_lambda_0.1","1.07254482115315","0.263583417800543","1.36669553777798","2.37493900322863","0.1"
"4","FairBagging_LDM_lambda_1","1.06990834966141","0.292481079239759","1.38311103559217","2.34732265719867","1"
"5","FairBagging_LDM_lambda_10","1.0660180707411","0.335757576537104","1.4056706549648","2.31261418220274","10"
"6","FairBagging_LDM_lambda_100","1.0650064564476","0.347133830923071","1.41118896309295","2.30481378956756","100"
"7","FairBagging_LDM_lambda_1000","1.06488849474015","0.348463632028725","1.41182286600219","2.30393773036326","1000"
"8","FairBagging_LDM_lambda_0.3","1.0717439855211","0.27232430747189","1.37177069836977","2.36621303996004","0.3"
